<?xml version="1.0" encoding="iso-8859-1"?>
<!-- Generator: Adobe Illustrator 19.0.0, SVG Export Plug-In . SVG Version: 6.00 Build 0)  -->
<svg version="1.1" id="Capa_1" xmlns="http://www.w3.org/2000/svg" xmlns:xlink="http://www.w3.org/1999/xlink" x="0px" y="0px"
	 viewBox="0 0 480 480" style="enable-background:new 0 0 480 480;" xml:space="preserve">
<g>
	<g>
		<path d="M224,256c-12.304,0-23.496,4.688-32,12.32V216c0-13.232-10.768-24-24-24H56c-13.232,0-24,10.768-24,24v65.472
			c-2.512-0.896-5.184-1.472-8-1.472c-13.232,0-24,10.768-24,24c0,6.168,2.408,11.744,6.24,16C2.408,324.256,0,329.832,0,336
			c0,6.168,2.408,11.744,6.24,16C2.408,356.256,0,361.832,0,368c0,6.168,2.408,11.744,6.24,16C2.408,388.256,0,393.832,0,400
			c0,13.232,10.768,24,24,24c2.816,0,5.488-0.576,8-1.472V424c0,13.232,10.768,24,24,24h16v32h16v-32h80c13.232,0,24-10.768,24-24
			v-96v-24c0-14.88,10.216-27.424,24-30.992V480h16V264C232,259.584,228.416,256,224,256z M24,408c-4.408,0-8-3.592-8-8
			c0-4.408,3.592-8,8-8s8,3.592,8,8C32,404.408,28.408,408,24,408z M24,376c-4.408,0-8-3.592-8-8c0-4.408,3.592-8,8-8s8,3.592,8,8
			C32,372.408,28.408,376,24,376z M24,344c-4.408,0-8-3.592-8-8c0-4.408,3.592-8,8-8s8,3.592,8,8C32,340.408,28.408,344,24,344z
			 M24,312c-4.408,0-8-3.592-8-8c0-4.408,3.592-8,8-8s8,3.592,8,8C32,308.408,28.408,312,24,312z M176,424c0,4.408-3.592,8-8,8H56
			c-4.408,0-8-3.592-8-8v-16h128V424z M176,304v24v64H48V248h128V304z M176,232H48v-16c0-4.408,3.592-8,8-8h112c4.408,0,8,3.592,8,8
			V232z"/>
	</g>
</g>
<g>
	<g>
		<path d="M472,256c-12.304,0-23.496,4.688-32,12.32V216c0-13.232-10.768-24-24-24H304c-13.232,0-24,10.768-24,24v65.472
			c-2.512-0.896-5.184-1.472-8-1.472c-13.232,0-24,10.768-24,24c0,6.168,2.408,11.744,6.24,16c-3.84,4.256-6.24,9.832-6.24,16
			c0,6.168,2.408,11.744,6.24,16c-3.84,4.256-6.24,9.832-6.24,16c0,6.168,2.408,11.744,6.24,16c-3.84,4.256-6.24,9.832-6.24,16
			c0,13.232,10.768,24,24,24c2.816,0,5.488-0.576,8-1.472V424c0,13.232,10.768,24,24,24h16v32h16v-32h80c13.232,0,24-10.768,24-24
			v-96v-24c0-14.88,10.216-27.424,24-30.992V480h16V264C480,259.584,476.416,256,472,256z M272,408c-4.408,0-8-3.592-8-8
			c0-4.408,3.592-8,8-8c4.408,0,8,3.592,8,8C280,404.408,276.408,408,272,408z M272,376c-4.408,0-8-3.592-8-8c0-4.408,3.592-8,8-8
			c4.408,0,8,3.592,8,8C280,372.408,276.408,376,272,376z M272,344c-4.408,0-8-3.592-8-8c0-4.408,3.592-8,8-8c4.408,0,8,3.592,8,8
			C280,340.408,276.408,344,272,344z M272,312c-4.408,0-8-3.592-8-8c0-4.408,3.592-8,8-8c4.408,0,8,3.592,8,8
			C280,308.408,276.408,312,272,312z M424,424c0,4.408-3.592,8-8,8H304c-4.408,0-8-3.592-8-8v-16h128V424z M424,304v24v64H296V248
			h128V304z M424,232H296v-16c0-4.408,3.592-8,8-8h112c4.408,0,8,3.592,8,8V232z"/>
	</g>
</g>
<g>
	<g>
		<path d="M352,0H128c-4.416,0-8,3.584-8,8v128c0,4.416,3.584,8,8,8h224c4.416,0,8-3.584,8-8V8C360,3.584,356.416,0,352,0z M136,16
			h22.864C155.952,27.192,147.192,35.952,136,38.864V16z M136,128v-22.864c11.192,2.912,19.952,11.672,22.864,22.864H136z M344,128
			h-22.864c2.912-11.192,11.672-19.952,22.864-22.864V128z M344,88.728c-20.056,3.384-35.888,19.224-39.28,39.28H175.28
			c-3.384-20.056-19.224-35.888-39.28-39.28V55.28c20.056-3.392,35.888-19.224,39.28-39.28h129.44
			c3.384,20.056,19.224,35.888,39.28,39.28V88.728z M344,38.864C332.808,35.952,324.048,27.192,321.136,16H344V38.864z"/>
	</g>
</g>
<g>
	<g>
		<rect x="56" y="160" width="16" height="16"/>
	</g>
</g>
<g>
	<g>
		<rect x="56" y="128" width="16" height="16"/>
	</g>
</g>
<g>
	<g>
		<rect x="56" y="96" width="16" height="16"/>
	</g>
</g>
<g>
	<g>
		<rect x="56" y="64" width="16" height="16"/>
	</g>
</g>
<g>
	<g>
		<rect x="408" y="160" width="16" height="16"/>
	</g>
</g>
<g>
	<g>
		<rect x="408" y="128" width="16" height="16"/>
	</g>
</g>
<g>
	<g>
		<rect x="408" y="96" width="16" height="16"/>
	</g>
</g>
<g>
	<g>
		<rect x="408" y="64" width="16" height="16"/>
	</g>
</g>
<g>
	<g>
		<rect x="376" y="64" width="16" height="16"/>
	</g>
</g>
<g>
	<g>
		<rect x="88" y="64" width="16" height="16"/>
	</g>
</g>
<g>
	<g>
		<path d="M240,40c-17.648,0-32,14.352-32,32s14.352,32,32,32s32-14.352,32-32S257.648,40,240,40z M240,88c-8.824,0-16-7.176-16-16
			s7.176-16,16-16c8.824,0,16,7.176,16,16S248.824,88,240,88z"/>
	</g>
</g>
<g>
	<g>
		<path d="M117.656,274.344c-3.128-3.128-8.184-3.128-11.312,0l-32,32l11.312,11.312L104,299.312V368h16v-68.688l18.344,18.344
			l11.312-11.312L117.656,274.344z"/>
	</g>
</g>
<g>
	<g>
		<path d="M386.344,322.344L368,340.688V272h-16v68.688l-18.344-18.344l-11.312,11.312l32,32c1.56,1.56,3.608,2.344,5.656,2.344
			c2.048,0,4.096-0.784,5.656-2.344l32-32L386.344,322.344z"/>
	</g>
</g>
<g>
</g>
<g>
</g>
<g>
</g>
<g>
</g>
<g>
</g>
<g>
</g>
<g>
</g>
<g>
</g>
<g>
</g>
<g>
</g>
<g>
</g>
<g>
</g>
<g>
</g>
<g>
</g>
<g>
</g>
</svg>
